{
  "miniprogramRoot": "./dist",
  "projectname": "aiya-mini",
  "description": "aiya-mini",
  "appid": "touristappid",
  "setting": {
    "urlCheck": true,
    "es6": false,
    "postcss": false,
    "minified": false
  },
  "compileType": "miniprogram"
}
